:100000000C9435000C945D000C945D000C945D0024
:100010000C945D000C945D000C945D000C945D00EC
:100020000C945D000C945D000C945D000C945D00DC
:100030000C945D000C945D000C945D000C945D00CC
<<<<<<< HEAD
:100040000C94C9000C945D000C9435030C9471035E
:100050000C945D000C945D000C945D000C945D00AC
:100060000C945D000C945D002C0411241FBECFEF96
:10007000D8E0DEBFCDBF11E0A0E0B1E0EAE9FBE0EF
:1000800002C005900D92A231B107D9F711E0A2E1AB
:10009000B1E001C01D92A83CB107E1F710E0CAE64B
:1000A000D0E004C02297FE010E94C705C836D107E0
:1000B000C9F70E948C020C94CB050C94000040E818
:1000C00055E260E070E081E291E00E94AC0383E0E1
:1000D0000C94A500809112010E94A8009093150134
:1000E00080931401BC01882777FD8095982F0E948A
:1000F000170523EC35EF44E151E40E947C040E9493
:10010000E404709317016093160164E581E291E0C5
:100110000E94FE0260911601709117014AE050E0C2
:1001200081E291E00E94840264E670E080E090E069
:100130000E943D0163E281E291E00E94FE0268EECE
:1001400073E080E090E00C943D01809300010895FD
:100150008E3008F08E5087702091000140E4249F7B
:1001600090011124822B80937C0080917A0080641E
:1001700080937A0080917A0086FDFCCF20917800F0
:1001800030917900932F80E0AC01422B9A01C90194
:1001900008951F920F920FB60F9211242F933F9341
:1001A0008F939F93AF93BF93809118019091190102
:1001B000A0911A01B0911B0130912001232F2D5FD6
:1001C0002D3720F40196A11DB11D05C0232F2A57FC
:1001D0000296A11DB11D20932001809318019093D8
:1001E0001901A0931A01B0931B0180911C019091F9
:1001F0001D01A0911E01B0911F010196A11DB11D0D
:1002000080931C0190931D01A0931E01B0931F01C8
:10021000BF91AF919F918F913F912F910F900FBE02
:100220000F901F9018950F931F939FB7F89400910C
:100230001C0110911D0120911E0130911F0186B5F6
:10024000A89B06C08F3F21F00F5F1F4F2F4F3F4FDE
:100250009FBF322F212F102F0027080F111D211DA6
:10026000311D42E0000F111F221F331F4A95D1F7A5
:10027000B801C9011F910F910895CF92DF92EF92BB
:10028000FF92CF93DF936B017C010E941301EB017E
:100290000EC00E9413016C1B7D0B683E734038F04A
:1002A00081E0C81AD108E108F108C851DC4FC11437
:1002B000D104E104F10469F7DF91CF91FF90EF9051
:1002C000DF90CF900895789484B5826084BD84B522
:1002D000816084BD85B5826085BD85B5816085BD41
:1002E000EEE6F0E0808181608083E1E8F0E010825A
:1002F000808182608083808181608083E0E8F0E09B
:10030000808181608083E1EBF0E080818460808384
:10031000E0EBF0E0808181608083EAE7F0E08081BB
:10032000846080838081826080838081816080831B
:100330008081806880831092C1000895CF92DF92FF
:10034000EF92FF920F931F93CF93DF936C01EB011A
:100350007A01E60EF71E00E010E00BC06991D601AD
:10036000ED91FC910190F081E02DC6010995080FF7
:10037000191FCE15DF0591F7C801DF91CF911F91AD
:100380000F91FF90EF90DF90CF900895DB010D90DB
:100390000020E9F7AD0141505109461B570BDC0124
:1003A000ED91FC910280F381E02D0994DC01ED9147
:1003B000FC910190F081E02D09944F925F926F9231
:1003C0007F929F92AF92BF92CF92DF92EF92FF9275
:1003D0000F931F93CF93DF93CDB7DEB7A1970FB6DF
:1003E000F894DEBF0FBECDBF5C016A017B01922E87
:1003F00019A281E0821710F08AE0982E8E010F5D1D
:100400001F4F492C512C612C712CC701B601A3013F
:1004100092010E94A3058C2D929E801911240150F7
:1004200011098A3014F4805D01C0895CF801808371
:1004300069017A01C114D104E104F10431F7B80172
:10044000C5010E94C601A1960FB6F894DEBF0FBE8B
:10045000CDBFDF91CF911F910F91FF90EF90DF9073
:10046000CF90BF90AF909F907F906F905F904F9094
:100470000895CF92DF92EF92FF920F931F93CF9345
:10048000DF93EC016A017B012115310579F4E881E4
:10049000F9810190F081E02D642FDF91CF911F91C0
:1004A0000F91FF90EF90DF90CF9009942A303105A3
:1004B00019F477FD0EC02AE0B701A601CE01DF9145
:1004C000CF911F910F91FF90EF90DF90CF900C9400
:1004D000DD016DE20E94D6018C0144275527BA0147
:1004E0004C195D096E097F092AE0CE010E94DD01E9
:1004F000080F191FC801DF91CF911F910F91FF9035
:10050000EF90DF90CF9008959A01AB01662757FDD9
:100510006095762F0C9439020E9463010E945F005F
:10052000C8E6D3E00E946A002097E1F30E946803C6
:10053000F9CFFC0184859585FC01E05CFF4F2081AB
:100540003181FC01EE5BFF4F80819181281B390BCB
:100550002F733327C9010895FC0184859585FC011B
:10056000E05CFF4F40815181FC01EE5BFF4F208139
:1005700031814217530741F00190F081E02DE80FDF
:10058000F91F208130E002C02FEF3FEFC90108952D
:10059000FC0184859585FC01E05CFF4F4081518121
:1005A000FC01EE5BFF4F208131814217530781F040
:1005B000A081B181A80FB91F8C91208131812F5F5B
:1005C0003F4F2F73332731832083282F30E002C021
:1005D0002FEF3FEFC9010895FC0186859785FC0147
:1005E000E05CFF4FDC01AE5BBF4F408151812D913C
:1005F0003C91119742175307C1F70895CF93DF93AA
:10060000FC0186859785DC01A05CBF4F2D913C9154
:1006100011972F5F3F4F2F733327EC01CE5BDF4FD6
:100620004881598124173507D9F30D90BC91A02D2D
:10063000A80FB91F6C93A685B785A05CBF4F119614
:100640003C932E93A689B7892C9181E090E0058C8C
:1006500002C0880F991F0A94E2F7282B2C9381E09F
:1006600090E0DF91CF91089508951F920F920FB6F9
:100670000F9211242F933F934F938F939F93EF9358
:10068000FF934091C6008091C4019091C5010196ED
:100690008F7399272091C6013091C7018217930764
:1006A00059F0E091C401F091C501EC57FE4F408331
:1006B0009093C5018093C401FF91EF919F918F9119
:1006C0004F913F912F910F900FBE0F901F90189553
:1006D00081E291E00E949902892B11F00C9434037D
:1006E00008951F920F920FB60F9211242F933F93EC
:1006F0008F939F93EF93FF9320918001309181011D
:1007000080918201909183012817390731F48091FB
:10071000C1008F7D8093C10014C0E0918201F091EF
:100720008301E05CFE4F20818091820190918301E2
:1007300001968F7399279093830180938201209370
:10074000C600FF91EF919F918F913F912F910F9054
:100750000FBE0F901F901895CF92DF92EF92FF92ED
:10076000CF93DF93EC016A017B01411581EE5807BD
:1007700061057105F9F0EC89FD8981E090E00E8C4E
:1007800002C0880F991F0A94E2F7808360E079E045
:100790008DE390E0A70196010E94A3052150310945
:1007A000410951095695479537952795211580E1BF
:1007B000380798F0EC89FD89108260E874E88EE1D2
:1007C00090E0A70196010E94A3052150310941093B
:1007D00051095695479537952795E889F9893083CA
:1007E000EA89FB892083EE89FF89408181E090E0DE
:1007F0009C010A8C02C0220F331F0A94E2F7422B9D
:100800004083EE89FF8940819C010B8C02C0220F3E
:10081000331F0A94E2F7422B4083EE89FF8940811F
:100820009C010C8C02C0220F331F0A94E2F7422B6A
:100830004083EE89FF8920810D8C02C0880F991FAB
:100840000A94E2F7809582238083DF91CF91FF9015
:10085000EF90DF90CF900895109224011092230121
:1008600088EE93E0A0E0B0E080932501909326010C
:10087000A0932701B093280185E091E09093220195
:100880008093210184E891E090932E0180932D01C3
:1008900080E491E09093300180932F0185EC90E00B
:1008A000909332018093310184EC90E09093340175
:1008B0008093330180EC90E0909336018093350172
:1008C00081EC90E0909338018093370186EC90E0C2
:1008D00090933A018093390184E080933B0183E057
:1008E00080933C0187E080933D0185E080933E0149
:1008F00081E080933F0108950CD0EBC0E3D040F03D
:10090000DAD030F021F45F3F19F0CCC0511115C19D
:10091000CFC0F0D098F39923C9F35523B1F3951BB9
:10092000550BBB27AA2762177307840738F09F5F10
:100930005F4F220F331F441FAA1FA9F333D00E2E7F
:100940003AF0E0E830D091505040E695001CCAF7EC
:1009500029D0FE2F27D0660F771F881FBB1F2617B1
:1009600037074807AB07B0E809F0BB0B802DBF0184
:10097000FF2793585F4F2AF09E3F510568F092C0C1
:10098000DCC05F3FECF3983EDCF386957795679586
:10099000B795F7959F5FC9F7880F911D9695879535
:1009A00097F90895E1E0660F771F881FBB1F621754
:1009B00073078407BA0720F0621B730B840BBA0B12
:1009C000EE1F88F7E095089504D06894B111B5C082
:1009D000089598D088F09F5790F0B92F9927B75174
:1009E000A0F0D1F0660F771F881F991F1AF0BA95F3
:1009F000C9F712C0B13081F09FD0B1E008959CC01A
:100A0000672F782F8827B85F39F0B93FCCF38695E8
:100A100077956795B395D9F73EF490958095709545
:100A200061957F4F8F4F9F4F0895E89409C097FBC2
:100A30003EF490958095709561957F4F8F4F9F4FB5
:100A40009923A9F0F92F96E9BB279395F6958795F9
:100A500077956795B795F111F8CFFAF4BB0F11F4BC
:100A600060FF1BC06F5F7F4F8F4F9F4F16C0882363
:100A700011F096E911C0772321F09EE8872F762F99
:100A800005C0662371F096E8862F70E060E02AF0DA
:100A90009A95660F771F881FDAF7880F96958795C6
:100AA00097F9089597F99F6780E870E060E00895EE
:100AB0009FEF80EC089500240A9416161706180676
:100AC0000906089500240A94121613061406050652
:100AD0000895092E0394000C11F4882352F0BB0FE3
:100AE00040F4BF2B11F460FF04C06F5F7F4F8F4F46
:100AF0009F4F089557FD9058440F551F59F05F3F81
:100B000071F04795880F97FB991F61F09F3F79F02F
:100B100087950895121613061406551FF2CF4695B1
:100B2000F1DF08C0161617061806991FF1CF869533
:100B30007105610508940895E894BB276627772717
:100B4000CB0197F90895A1E21A2EAA1BBB1BFD0148
:100B50000DC0AA1FBB1FEE1FFF1FA217B307E4079C
:100B6000F50720F0A21BB30BE40BF50B661F771FF4
:100B7000881F991F1A9469F76095709580959095D4
:100B80009B01AC01BD01CF010895EE0FFF1F059041
:0A0B9000F491E02D0994F894FFCFD2
:100B9A000100000000FE029E019902C802AC02ECAC
:020BAA00020047
=======
:100040000C949B000C945D000C9421020C946402AF
:100050000C945D000C945D000C945D000C945D00AC
:100060000C945D000C945D00200311241FBECFEFA3
:10007000D8E0DEBFCDBF11E0A0E0B1E0EAE8FFE0EC
:1000800002C005900D92A032B107D9F711E0A0E2AD
:10009000B1E001C01D92AB3DB107E1F710E0CAE647
:1000A000D0E004C02297FE010E94BF07C836D107E6
:1000B000C9F70E946F050C94C3070C94000040E838
:1000C00055E260E070E081E391E00E949F0283E0EE
:1000D0000C946901809120010E946C01909323018E
:1000E00080932201BC01882777FD8095982F0E947C
:1000F000800623EC35EF44E151E40E94E50560936E
:10010000240170932501809326019093270120E01C
:1001100030E040E151E40E947D05AB01BC0122E0EA
:1001200030E081E391E00E945D0564EF71E080E0E2
:1001300090E00C9408011F920F920FB60F921124B9
:100140002F933F938F939F93AF93BF9380912901F8
:1001500090912A01A0912B01B0912C01309128019E
:1001600023E0230F2D3720F40196A11DB11D05C0FA
:1001700026E8230F0296A11DB11D2093280180932C
:10018000290190932A01A0932B01B0932C01809117
:100190002D0190912E01A0912F01B0913001019677
:1001A000A11DB11D80932D0190932E01A0932F01CD
:1001B000B0933001BF91AF919F918F913F912F915B
:1001C0000F900FBE0F901F9018953FB7F894809135
:1001D0002D0190912E01A0912F01B091300126B5F3
:1001E000A89B05C02F3F19F00196A11DB11D3FBF6F
:1001F0006627782F892F9A2F620F711D811D911DFF
:1002000042E0660F771F881F991F4A95D1F708951E
:10021000CF92DF92EF92FF92CF93DF936B017C013D
:100220000E94E500EB01C114D104E104F10479F06E
:100230000E94E5006C1B7D0B683E7340A0F381E0DB
:10024000C81AD108E108F108C851DC4FECCFDF91A2
:10025000CF91FF90EF90DF90CF900895789484B580
:10026000826084BD84B5816084BD85B5826085BDB2
:1002700085B5816085BDEEE6F0E080818160808398
:10028000E1E8F0E01082808182608083808181607B
:100290008083E0E8F0E0808181608083E1EBF0E042
:1002A000808184608083E0EBF0E0808181608083E6
:1002B000EAE7F0E0808184608083808182608083CF
:1002C0008081816080838081806880831092C100FA
:1002D00008958093000108958E3008F08E50877045
:1002E0002091000190E4299F90011124822B80939A
:1002F0007C0080917A00806480937A0080917A00FB
:1003000086FDFCCF809178002091790090E0922BBF
:100310000895FC0124853585F901E05CFF4F80815B
:100320009181F901EE5BFF4F20813181821B930B9C
:100330008F7399270895FC0184859585FC01E05C05
:10034000FF4F40815181FC01EE5BFF4F20813181E5
:100350004217530741F00190F081E02DE80FF91F9B
:10036000808190E008958FEF9FEF0895FC018485D0
:100370009585FC01E05CFF4F40815181FC01EE5B03
:10038000FF4F208131814217530779F0A081B1815D
:10039000A80FB91F8C91208131812F5F3F4F2F73A0
:1003A00033273183208390E008958FEF9FEF0895E6
:1003B000FC0181A1882329F0A489B5898C9186FF4D
:1003C000FBCF11A20895CF93DF93FC0126853785DB
:1003D000D901A05CBF4F8D919C91119701968F73AD
:1003E0009927E901CE5BDF4F488159818417950732
:1003F000D9F30D90BC91A02DA20FB31F6C93A685CD
:10040000B785A05CBF4F11969C938E93A689B78940
:100410002C9181E090E0078C02C0880F991F0A940C
:10042000E2F7282B2C9381E081A30488F589E02D45
:1004300080818064808381E090E0DF91CF91089596
:1004400008951F920F920FB60F9211242F933F938E
:100450004F938F939F93EF93FF938091C00082FD02
:100460001CC04091C6008091D7019091D80101969F
:100470008F7399272091D9013091DA018217930760
:1004800071F0E091D701F091D801E956FE4F408319
:100490009093D8018093D70102C08091C600FF914C
:1004A000EF919F918F914F913F912F910F900FBEA0
:1004B0000F901F90189581E391E00E948901892B8C
:1004C00011F00C94200208951F920F920FB60F9214
:1004D00011242F933F938F939F93EF93FF9320913A
:1004E0009301309194018091950190919601281784
:1004F000390731F48091C1008F7D8093C10014C011
:10050000E0919501F0919601ED5AFE4F2081809186
:1005100095019091960101968F739927909396017A
:10052000809395012093C600FF91EF919F918F9149
:100530003F912F910F900FBE0F901F901895CF9263
:10054000DF92EF92FF92CF93DF93EC016A017B0180
:10055000411581EE580761057105F9F0EC89FD89B7
:1005600081E090E008A002C0880F991F0A94E2F78A
:10057000808360E079E08DE390E0A70196010E941E
:100580009B072150310941095109569547953795E7
:100590002795211580E1380798F0EC89FD891082B4
:1005A00060E874E88EE190E0A70196010E949B0745
:1005B000215031094109510956954795379527959D
:1005C000E889F9893083EA89FB89208319A2EE89B9
:1005D000FF89408181E090E09C010C8C02C0220FD9
:1005E000331F0A94E2F7422B4083EE89FF89408152
:1005F0009C010D8C02C0220F331F0A94E2F7422B9C
:100600004083EE89FF8940819C010E8C02C0220F3D
:10061000331F0A94E2F7422B4083EE89FF89208141
:100620000F8C02C0880F991F0A94E2F780958223ED
:100630008083DF91CF91FF90EF90DF90CF9008956E
:10064000109234011092330188EE93E0A0E0B0E004
:100650008093350190933601A0933701B093380110
:1006600085E091E0909332018093310187E991E038
:1006700090933E0180933D0183E591E0909340018A
:1006800080933F0185EC90E090934201809341017B
:1006900084EC90E0909344018093430180EC90E0DF
:1006A000909346018093450181EC90E0909348013E
:1006B0008093470182EC90E090934A018093490136
:1006C00086EC90E090934C0180934B0184E0809302
:1006D0004D0183E080934E0187E080934F0185E0D8
:1006E0008093500181E0809351010895CF92DF9271
:1006F000EF92FF920F931F93CF93DF936C017A01D8
:10070000EB01E60EF71E00E010E0CE15DF0561F00C
:100710006991D601ED91FC910190F081E02DC60127
:100720000995080F191FF1CFC801DF91CF911F91D3
:100730000F91FF90EF90DF90CF90089561157105B4
:1007400081F0DB010D900020E9F7AD014150510926
:10075000461B570BDC01ED91FC910280F381E02DEB
:10076000099480E090E00895DC01ED91FC91019006
:10077000F081E02D09940F931F93CF93DF93EC0149
:100780006DE00E94B4038C016AE0CE010E94B403C4
:10079000800F911FDF91CF911F910F9108958F923C
:1007A0009F92AF92BF92CF92DF92EF92FF920F9300
:1007B0001F93CF93DF93CDB7DEB7A1970FB6F89411
:1007C000DEBF0FBECDBF7C01C42EE52FCB01D22EE4
:1007D00019A221E02D1510F02AE0D22E8E010F5D16
:1007E0001F4F8D2C912CA12CB12C6C2D7E2FA5018F
:1007F00094010E949B078C2DD29E801911240150D8
:1008000011098A3014F4805D01C0895CF80180838D
:10081000211531054105510521F0C22EE32FCA01F2
:10082000E4CFB801C7010E949E03A1960FB6F894C9
:10083000DEBF0FBECDBFDF91CF911F910F91FF9013
:10084000EF90DF90CF90BF90AF909F908F900895E2
:10085000CF92DF92EF92FF920F931F93CF93DF938C
:10086000EC016A017B012115310579F4E881F981F8
:100870000190F081E02D642FDF91CF911F910F91B6
:10088000FF90EF90DF90CF9009942A303105E9F482
:1008900077FF1AC06DE20E94B4038C0144275527EC
:1008A000BA014C195D096E097F092AE0CE010E9448
:1008B000CF03800F911FDF91CF911F910F91FF9078
:1008C000EF90DF90CF9008952AE0B701A601CE0106
:1008D000DF91CF911F910F91FF90EF90DF90CF901C
:1008E0000C94CF034F925F926F927F928F929F9260
:1008F000AF92BF92CF92DF92EF92FF920F931F932E
:10090000CF93DF93EC016A017B01B22E9A01AB0118
:10091000C701B6010E949707882319F061E171E0D1
:1009200027C026013701E89477F82FEF3FEF4FE714
:100930005FE7C301B2010E94970781110DC02FEF3D
:100940003FEF4FE75FE7C301B2010E94E1051816D0
:100950001CF465E171E00CC02FEF3FEF4FE75FE45F
:10096000C701B6010E9430071816ACF469E171E0C6
:10097000CE01DF91CF911F910F91FF90EF90DF900B
:10098000CF90BF90AF909F908F907F906F905F902F
:100990004F900C949E032FEF3FEF4FE75FECC701A2
:1009A000B6010E94E10587FDE1CF20E030E0A9011A
:1009B000C701B6010E94E10587FF0AC06DE2CE01C2
:1009C0000E94B4038C01F7FAF094F7F8F09402C097
:1009D00000E010E0A12C60E070E080E09FE3AB1449
:1009E00041F020E030E040E251E40E94E505A394AC
:1009F000F6CF9B01AC01C701B6010E947D056B01DA
:100A00007C010E9452062B013C010E947E069B0144
:100A1000AC01C701B6010E947C056B017C012AE094
:100A2000B301A201CE010E94CF03080F191FBB2002
:100A300039F06DE171E0CE010E949E03080F191F8D
:100A40007B2C772041F120E030E040E251E4C70107
:100A5000B6010E9434076B017C010E944D064B01D8
:100A6000AA2497FCA094BA2C2AE030E0B501A40196
:100A7000CE010E942804080F191FC501B4010E946D
:100A800080069B01AC01C701B6010E947C056B0189
:100A90007C017A94D6CFC801DF91CF911F910F913D
:100AA000FF90EF90DF90CF90BF90AF909F908F908E
:100AB0007F906F905F904F9008950F931F93CF9307
:100AC000DF93EC010E9472048C01CE010E94BB03F3
:100AD000800F911FDF91CF911F910F9108950E9478
:100AE0002E010E945F00CBE5D2E00E946A002097B1
:100AF000E1F30E945B02F9CF5058BB27AA270ED022
:100B000075C166D130F06BD120F031F49F3F11F404
:100B10001EF45BC10EF4E095E7FB51C1E92F77D1DC
:100B200080F3BA17620773078407950718F071F40A
:100B30009EF58FC10EF4E0950B2EBA2FA02D0B0160
:100B4000B90190010C01CA01A0011124FF27591B12
:100B500099F0593F50F4503E68F11A16F040A22F18
:100B6000232F342F4427585FF3CF46953795279589
:100B7000A795F0405395C9F77EF41F16BA0B620B88
:100B8000730B840BBAF09150A1F0FF0FBB1F661FCF
:100B9000771F881FC2F70EC0BA0F621F731F841F12
:100BA00048F4879577956795B795F7959E3F08F038
:100BB000B3CF9395880F08F09927EE0F97958795F7
:100BC0000895D9D008F481E008950CD00FC107D161
:100BD00040F0FED030F021F45F3F19F0F0C0511129
:100BE00039C1F3C014D198F39923C9F35523B1F354
:100BF000951B550BBB27AA2762177307840738F08C
:100C00009F5F5F4F220F331F441FAA1FA9F333D0EA
:100C10000E2E3AF0E0E830D091505040E695001C9E
:100C2000CAF729D0FE2F27D0660F771F881FBB1F5A
:100C3000261737074807AB07B0E809F0BB0B802D34
:100C4000BF01FF2793585F4F2AF09E3F510568F080
:100C5000B6C000C15F3FECF3983EDCF38695779514
:100C60006795B795F7959F5FC9F7880F911D969582
:100C7000879597F90895E1E0660F771F881FBB1FDE
:100C8000621773078407BA0720F0621B730B840B8B
:100C9000BA0BEE1F88F7E095089504D06894B1115F
:100CA000D9C00895BCD088F09F5790F0B92F9927EC
:100CB000B751A0F0D1F0660F771F881F991F1AF067
:100CC000BA95C9F712C0B13081F0C3D0B1E0089530
:100CD000C0C0672F782F8827B85F39F0B93FCCF3B1
:100CE000869577956795B395D9F73EF4909580955D
:100CF000709561957F4F8F4F9F4F0895E89409C07D
:100D000097FB3EF490958095709561957F4F8F4F3E
:100D10009F4F9923A9F0F92F96E9BB279395F69554
:100D2000879577956795B795F111F8CFFAF4BB0FD2
:100D300011F460FF1BC06F5F7F4F8F4F9F4F16C036
:100D4000882311F096E911C0772321F09EE8872FC0
:100D5000762F05C0662371F096E8862F70E060E07C
:100D60002AF09A95660F771F881FDAF7880F9695F5
:100D7000879597F90895990F0008550FAA0BE0E899
:100D8000FEEF16161706E807F907C0F0121613064D
:100D9000E407F50798F0621B730B840B950B39F48D
:100DA0000A2661F0232B242B252B21F408950A26F3
:100DB00009F4A140A6958FEF811D811D089597F933
:100DC0009F6780E870E060E008959FEF80EC0895F1
:100DD00000240A941616170618060906089500241A
:100DE0000A9412161306140605060895092E039494
:100DF000000C11F4882352F0BB0F40F4BF2B11F408
:100E000060FF04C06F5F7F4F8F4F9F4F089557FD66
:100E10009058440F551F59F05F3F71F04795880F68
:100E200097FB991F61F09F3F79F0879508951216FF
:100E300013061406551FF2CF4695F1DF08C01616AB
:100E400017061806991FF1CF86957105610508945C
:100E50000895E894BB2766277727CB0197F9089573
:100E60008ADF08F48FEF08950BD0C0CFB1DF28F0F0
:100E7000B6DF18F0952309F0A2CFA7CF1124EACF4F
:100E8000C6DFA0F3959FD1F3950F50E0551F629FE9
:100E9000F001729FBB27F00DB11D639FAA27F00DD3
:100EA000B11DAA1F649F6627B00DA11D661F829FFA
:100EB0002227B00DA11D621F739FB00DA11D621FDF
:100EC000839FA00D611D221F749F3327A00D611DFC
:100ED000231F849F600D211D822F762F6A2F1124DE
:100EE0009F5750408AF0E1F088234AF0EE0FFF1F31
:100EF000BB1F661F771F881F91505040A9F79E3F68
:100F0000510570F05CCFA6CF5F3FECF3983EDCF369
:100F1000869577956795B795F795E7959F5FC1F7A4
:100F2000FE2B880F911D9695879597F9089523DFDD
:100F3000880B990B0895A1E21A2EAA1BBB1BFD0179
:100F40000DC0AA1FBB1FEE1FFF1FA217B307E407A8
:100F5000F50720F0A21BB30BE40BF50B661F771F00
:100F6000881F991F1A9469F76095709580959095E0
:100F70009B01AC01BD01CF010895EE0FFF1F05904D
:0A0F8000F491E02D0994F894FFCFDE
:100F8A000100000000E30176038901B6019B01D844
:100F9A00016E616E00696E66006F7666002E000053
>>>>>>> 4dfe215a5d801b98802e4ffd07a7fddb5b11a515
:00000001FF
